{
    "trademarkList": [
        {
            "tmId": 1,
            "tmName": "苹果"
        },
        {
            "tmId": 2,
            "tmName": "小米"
        },
        {
            "tmId": 3,
            "tmName": "华为"
        }
    ],
    "attrsList": [
        {
            "attrId": 1,
            "attrValueList": [
                "0-2500",
                "2500-5000",
                "5000-7500",
                "7500-10000"
            ],
            "attrName": "价格"
        }
    ],
    "goodsList": [
        {
            "id": 1,
            "defaultImg": "/images/mobile01.png",
            "title": "Apple iPhone 11 (A2223)",
            "price": 5499,
            "createTime": null,
            "tmId": 1,
            "tmName": "苹果",
            "category1Id": null,
            "category1Name": null,
            "category2Id": null,
            "category2Name": null,
            "category3Id": null,
            "category3Name": null,
            "hotScore": 0,
            "attrs": null
        },
        {
            "id": 2,
            "defaultImg": "/images/mobile01.png",
            "title": "Apple iPhone 11 (A2223)",
            "price": 5499,
            "createTime": null,
            "tmId": null,
            "tmName": null,
            "category1Id": null,
            "category1Name": null,
            "category2Id": null,
            "category2Name": null,
            "category3Id": null,
            "category3Name": null,
            "hotScore": 0,
            "attrs": null
        }
    ],
    "total": 8,
    "pageSize": 2,
    "pageNo": 1,
    "totalPages": 4,
    "ok": true
}